lat,lon,intensity
43.66191105726068,3.9056396484375,0.10221956442913588
43.66191105726068,3.90838623046875,0.10676629093523081
43.66191105726068,3.9111328125,0.10923834676361409
43.66191105726068,3.91387939453125,0.10969599055646778
43.66191105726068,3.9166259765625,0.10916578230757476
43.66191105726068,3.91937255859375,0.10904921856942612
43.66191105726068,3.922119140625,0.10998737215608025
43.66191105726068,3.92486572265625,0.1110362047063699
43.66191105726068,3.9276123046875,0.10996786129378726
43.66191105726068,3.93035888671875,0.10460816048500837
43.659924074789096,3.87542724609375,0.10384035071415117
43.659924074789096,3.878173828125,0.10911320794363263
43.659924074789096,3.88092041015625,0.1089472540659686
43.659924074789096,3.8836669921875,0.10437969902148136
43.659924074789096,3.900146484375,0.1022857177670216
43.659924074789096,3.90289306640625,0.11065974682350461
43.659924074789096,3.9056396484375,0.11995828637772846
43.659924074789096,3.90838623046875,0.12862334630998973
43.659924074789096,3.9111328125,0.1349218999986191
43.659924074789096,3.91387939453125,0.1380341625771907
43.659924074789096,3.9166259765625,0.13874348040835038
43.659924074789096,3.91937255859375,0.13897273973550558
43.659924074789096,3.922119140625,0.14019603118883
43.659924074789096,3.92486572265625,0.14189146267744004
43.659924074789096,3.9276123046875,0.14147846238960932
43.659924074789096,3.93035888671875,0.13592195783341354
43.659924074789096,3.93310546875,0.1237549523797636
43.659924074789096,3.93585205078125,0.10607869639408066
43.6579370265582,3.86993408203125,0.1115861088142719
43.6579370265582,3.8726806640625,0.12353400815109866
43.6579370265582,3.87542724609375,0.1315219049282987
43.6579370265582,3.878173828125,0.1338246847315829
43.6579370265582,3.88092041015625,0.1302347905047939
43.6579370265582,3.8836669921875,0.12229369480420423
43.6579370265582,3.88641357421875,0.11271540509207902
43.6579370265582,3.88916015625,0.10439636284802421
43.6579370265582,3.89739990234375,0.10159582446491286
43.6579370265582,3.900146484375,0.10853122379758268
43.6579370265582,3.90289306640625,0.11919251067519189
43.6579370265582,3.9056396484375,0.13261778519163775
43.6579370265582,3.90838623046875,0.1464966567118156
43.6579370265582,3.9111328125,0.15791409212255758
43.6579370265582,3.91387939453125,0.16492907845361246
43.6579370265582,3.9166259765625,0.16782467990336758
43.6579370265582,3.91937255859375,0.16888605218581088
43.6579370265582,3.922119140625,0.17042799528967303
43.6579370265582,3.92486572265625,0.17249830699299676
43.6579370265582,3.9276123046875,0.17236700297364047
43.6579370265582,3.93035888671875,0.16630529756123272
43.6579370265582,3.93310546875,0.15215009489935227
43.6579370265582,3.93585205078125,0.13080439011001216
43.6579370265582,3.9385986328125,0.10585305266925822
43.65594991256823,3.86444091796875,0.1150416896610688
43.65594991256823,3.8671875,0.13158832657876293
43.65594991256823,3.86993408203125,0.14585546469381797
43.65594991256823,3.8726806640625,0.15575583541021457
43.65594991256823,3.87542724609375,0.15959353182201075
43.65594991256823,3.878173828125,0.1567563397838557
43.65594991256823,3.88092041015625,0.14811658396475214
43.65594991256823,3.8836669921875,0.1357968671616744
43.65594991256823,3.88641357421875,0.12254477261981597
43.65594991256823,3.88916015625,0.11105520762440661
43.65594991256823,3.89190673828125,0.10331363119979824
43.65594991256823,3.8946533203125,0.10026844086513366
43.65594991256823,3.89739990234375,0.10224470800504315
43.65594991256823,3.900146484375,0.10960286887931091
43.65594991256823,3.90289306640625,0.12252196607929736
43.65594991256823,3.9056396484375,0.1399173751007164
43.65594991256823,3.90838623046875,0.15886196709706896
43.65594991256823,3.9111328125,0.17545838472385047
43.65594991256823,3.91387939453125,0.1867410807817782
43.65594991256823,3.9166259765625,0.19238637478019102
43.65594991256823,3.91937255859375,0.19477998276754324
43.65594991256823,3.922119140625,0.1968171674504432
43.65594991256823,3.92486572265625,0.19901756825532538
43.65594991256823,3.9276123046875,0.19863625126109355
43.65594991256823,3.93035888671875,0.1915508738573111
43.65594991256823,3.93310546875,0.17519763775193192
43.65594991256823,3.93585205078125,0.1504172457394108
43.65594991256823,3.9385986328125,0.1212270351322461
43.65396273281938,3.85894775390625,0.1025950761790753
43.65396273281938,3.8616943359375,0.12448079890285853
43.65396273281938,3.86444091796875,0.14661428532751727
43.65396273281938,3.8671875,0.16594626006088395
43.65396273281938,3.86993408203125,0.17953024523079567
43.65396273281938,3.8726806640625,0.18529903111479595
43.65396273281938,3.87542724609375,0.18265774877225757
43.65396273281938,3.878173828125,0.1727358768059726
43.65396273281938,3.88092041015625,0.15795521047613043
43.65396273281938,3.8836669921875,0.1411419004989062
43.65396273281938,3.88641357421875,0.12489332890614448
43.65396273281938,3.88916015625,0.11139393090474475
43.65396273281938,3.89190673828125,0.10224733179419417
43.65396273281938,3.89739990234375,0.10014834140962302
43.65396273281938,3.900146484375,0.10827536605038804
43.65396273281938,3.90289306640625,0.12300617955646523
43.65396273281938,3.9056396484375,0.1431807538342612
43.65396273281938,3.90838623046875,0.16560678193806302
43.65396273281938,3.9111328125,0.1859357309183139
43.65396273281938,3.91387939453125,0.20063169625514002
43.65396273281938,3.9166259765625,0.20890721752636648
43.65396273281938,3.91937255859375,0.2130165332174097
43.65396273281938,3.922119140625,0.21599002317165655
43.65396273281938,3.92486572265625,0.2184506529545034
43.65396273281938,3.9276123046875,0.21757406543768587
43.65396273281938,3.93035888671875,0.20910425270138513
43.65396273281938,3.93310546875,0.1904728201461251
43.65396273281938,3.93585205078125,0.16274041516395615
43.65396273281938,3.9385986328125,0.13037996388982737
43.65197548731186,3.85894775390625,0.11913535427886375
43.65197548731186,3.8616943359375,0.14703877343138402
43.65197548731186,3.86444091796875,0.17418205481681037
43.65197548731186,3.8671875,0.19577533459935909
43.65197548731186,3.86993408203125,0.2076999299718541
43.65197548731186,3.8726806640625,0.2079657029710214
43.65197548731186,3.87542724609375,0.1974268456915686
43.65197548731186,3.878173828125,0.17944719322010189
43.65197548731186,3.88092041015625,0.15840653878887637
43.65197548731186,3.8836669921875,0.1379721335561068
43.65197548731186,3.88641357421875,0.12042684082788611
43.65197548731186,3.88916015625,0.10708889125801833
43.65197548731186,3.900146484375,0.10776865583033693
43.65197548731186,3.90289306640625,0.12326460723438011
43.65197548731186,3.9056396484375,0.14409269174656178
43.65197548731186,3.90838623046875,0.16726075082383465
43.65197548731186,3.9111328125,0.18866165999834592
43.65197548731186,3.91387939453125,0.20486258512209057
43.65197548731186,3.9166259765625,0.21498113394685195
43.65197548731186,3.91937255859375,0.22103505478382698
43.65197548731186,3.922119140625,0.2257028339302345
43.65197548731186,3.92486572265625,0.2291590558384644
43.65197548731186,3.9276123046875,0.22820460164152884
43.65197548731186,3.93035888671875,0.21852846587977573
43.65197548731186,3.93310546875,0.19788283805757947
43.65197548731186,3.93585205078125,0.1678712789210763
43.65197548731186,3.9385986328125,0.1335374901757527
43.65197548731186,3.94134521484375,0.10097270986991716
43.6499881760459,3.856201171875,0.10092314614272002
43.6499881760459,3.85894775390625,0.1298076423458689
43.6499881760459,3.8616943359375,0.16247717753659216
43.6499881760459,3.86444091796875,0.1939197434254985
43.6499881760459,3.8671875,0.2174882101848999
43.6499881760459,3.86993408203125,0.22769990009004798
43.6499881760459,3.8726806640625,0.22253492953020082
43.6499881760459,3.87542724609375,0.20433051210495304
43.6499881760459,3.878173828125,0.1788299033250489
43.6499881760459,3.88092041015625,0.15255074120538653
43.6499881760459,3.8836669921875,0.13009140837370448
43.6499881760459,3.88641357421875,0.1133084919410309
43.6499881760459,3.88916015625,0.10234148887072798
43.6499881760459,3.89739990234375,0.10057885579393851
43.6499881760459,3.900146484375,0.10989899400082721
43.6499881760459,3.90289306640625,0.12439570745423252
43.6499881760459,3.9056396484375,0.14320460041411218
43.6499881760459,3.90838623046875,0.1639724879629022
43.6499881760459,3.9111328125,0.1834512244747872
43.6499881760459,3.91387939453125,0.19896196813204547
43.6499881760459,3.9166259765625,0.20996784126390278
43.6499881760459,3.91937255859375,0.21825612431000063
43.6499881760459,3.922119140625,0.22572551124708556
43.6499881760459,3.92486572265625,0.23150306929933948
43.6499881760459,3.9276123046875,0.23156936901261002
43.6499881760459,3.93035888671875,0.22143903907492876
43.6499881760459,3.93310546875,0.1993537228837489
43.6499881760459,3.93585205078125,0.16773931544942694
43.6499881760459,3.9385986328125,0.1323929336641546
43.64800079902171,3.856201171875,0.10332338148378627
43.64800079902171,3.85894775390625,0.13378296401863327
43.64800079902171,3.8616943359375,0.1694352225347711
43.64800079902171,3.86444091796875,0.20429766039040878
43.64800079902171,3.8671875,0.23003391506141815
43.64800079902171,3.86993408203125,0.23971003568277724
43.64800079902171,3.8726806640625,0.2310020563765436
43.64800079902171,3.87542724609375,0.20735698262268176
43.64800079902171,3.878173828125,0.17655161217823118
43.64800079902171,3.88092041015625,0.14706154616687633
43.64800079902171,3.8836669921875,0.12439728050921796
43.64800079902171,3.88641357421875,0.1099608009839388
43.64800079902171,3.88916015625,0.10255129885889418
43.64800079902171,3.89190673828125,0.10035536162169406
43.64800079902171,3.8946533203125,0.10194944344792702
43.64800079902171,3.89739990234375,0.10661811160446741
43.64800079902171,3.900146484375,0.11439183418495304
43.64800079902171,3.90289306640625,0.12554596268131454
43.64800079902171,3.9056396484375,0.1397241918878221
43.64800079902171,3.90838623046875,0.15550578767665715
43.64800079902171,3.9111328125,0.17085255928377738
43.64800079902171,3.91387939453125,0.1842381532825333
43.64800079902171,3.9166259765625,0.19576871267637896
43.64800079902171,3.91937255859375,0.20698894230789885
43.64800079902171,3.922119140625,0.2186520737710524
43.64800079902171,3.92486572265625,0.22831163000307156
43.64800079902171,3.9276123046875,0.2306997873025744
43.64800079902171,3.93035888671875,0.2209760602472843
43.64800079902171,3.93310546875,0.19794817133713644
43.64800079902171,3.93585205078125,0.1650932722105253
43.64800079902171,3.9385986328125,0.12916721678234686
43.6460133562395,3.856201171875,0.10245048953917907
43.6460133562395,3.85894775390625,0.13207237796772553
43.6460133562395,3.8616943359375,0.16874056957715472
43.6460133562395,3.86444091796875,0.20610463159742387
43.6460133562395,3.8671875,0.23459105068164718
43.6460133562395,3.86993408203125,0.24588766980217389
43.6460133562395,3.8726806640625,0.23698936803513715
43.6460133562395,3.87542724609375,0.21172402539535284
43.6460133562395,3.878173828125,0.17909307033703448
43.6460133562395,3.88092041015625,0.14898468931162673
43.6460133562395,3.8836669921875,0.12767467154040643
43.6460133562395,3.88641357421875,0.11618230452241733
43.6460133562395,3.88916015625,0.11202636228952284
43.6460133562395,3.89190673828125,0.11198362827165449
43.6460133562395,3.8946533203125,0.11371863282375133
43.6460133562395,3.89739990234375,0.11624382762251889
43.6460133562395,3.900146484375,0.11979332686471661
43.6460133562395,3.90289306640625,0.1251617800332242
43.6460133562395,3.9056396484375,0.13277457826446537
43.6460133562395,3.90838623046875,0.14224783090730475
43.6460133562395,3.9111328125,0.15277248111761285
43.6460133562395,3.91387939453125,0.16399960419579765
43.6460133562395,3.9166259765625,0.17666633229058035
43.6460133562395,3.91937255859375,0.19190884593787047
43.6460133562395,3.922119140625,0.20901565613704676
43.6460133562395,3.92486572265625,0.22364510253768788
43.6460133562395,3.9276123046875,0.22909306730788212
43.6460133562395,3.93035888671875,0.22013753892235682
43.6460133562395,3.93310546875,0.1962581596347126
43.6460133562395,3.93585205078125,0.1621508397726508
43.6460133562395,3.9385986328125,0.1256463250600371
43.644025847699496,3.856201171875,0.10075363544714494
43.644025847699496,3.85894775390625,0.12740168787619713
43.644025847699496,3.8616943359375,0.16314969918335448
43.644025847699496,3.86444091796875,0.2019330513010801
43.644025847699496,3.8671875,0.23358767630439642
43.644025847699496,3.86993408203125,0.24869080760921713
43.644025847699496,3.8726806640625,0.24323064431865715
43.644025847699496,3.87542724609375,0.2205662244524212
43.644025847699496,3.878173828125,0.18988797106949817
43.644025847699496,3.88092041015625,0.16172570631600286
43.644025847699496,3.8836669921875,0.1428622726575023
43.644025847699496,3.88641357421875,0.13406777073236859
43.644025847699496,3.88916015625,0.1318309783487087
43.644025847699496,3.89190673828125,0.13175534261894783
43.644025847699496,3.8946533203125,0.1308675427161195
43.644025847699496,3.89739990234375,0.12830534316050946
43.644025847699496,3.900146484375,0.12501211537099544
43.644025847699496,3.90289306640625,0.1227642029458964
43.644025847699496,3.9056396484375,0.12300100221903094
43.644025847699496,3.90838623046875,0.1263113103811306
43.644025847699496,3.9111328125,0.13284823819015326
43.644025847699496,3.91387939453125,0.14309967520179354
43.644025847699496,3.9166259765625,0.1580784995008375
43.644025847699496,3.91937255859375,0.1781811579034299
43.644025847699496,3.922119140625,0.2010342657380534
43.644025847699496,3.92486572265625,0.22044749598610058
43.644025847699496,3.9276123046875,0.22852507701681124
43.644025847699496,3.93035888671875,0.21993422563828552
43.644025847699496,3.93310546875,0.19499190202232689
43.644025847699496,3.93585205078125,0.15962247910416857
43.644025847699496,3.9385986328125,0.12259140170230863
43.64203827340191,3.856201171875,0.10166887221362006
43.64203827340191,3.85894775390625,0.12376105694677272
43.64203827340191,3.8616943359375,0.15675898512807307
43.64203827340191,3.86444091796875,0.1954259582526046
43.64203827340191,3.8671875,0.2297285479365771
43.64203827340191,3.86993408203125,0.24961651166522844
43.64203827340191,3.8726806640625,0.24999527070479596
43.64203827340191,3.87542724609375,0.23311310473511285
43.64203827340191,3.878173828125,0.2074264229947371
43.64203827340191,3.88092041015625,0.18331792731584454
43.64203827340191,3.8836669921875,0.1677273483965228
43.64203827340191,3.88641357421875,0.1612682209203997
43.64203827340191,3.88916015625,0.15970576985008963
43.64203827340191,3.89190673828125,0.15778259377749057
43.64203827340191,3.8946533203125,0.15217896128613329
43.64203827340191,3.89739990234375,0.14251398866169016
43.64203827340191,3.900146484375,0.13087848454579962
43.64203827340191,3.90289306640625,0.12041301170163725
43.64203827340191,3.9056396484375,0.1137100912916489
43.64203827340191,3.90838623046875,0.11214580161927377
43.64203827340191,3.9111328125,0.11638529905449281
43.64203827340191,3.91387939453125,0.12716401839604174
43.64203827340191,3.9166259765625,0.14520041245159443
43.64203827340191,3.91937255859375,0.16980731331335022
43.64203827340191,3.922119140625,0.1970306956068053
43.64203827340191,3.92486572265625,0.21935403073945875
43.64203827340191,3.9276123046875,0.22839217727835387
43.64203827340191,3.93035888671875,0.21921580842553515
43.64203827340191,3.93310546875,0.1930931622819755
43.64203827340191,3.93585205078125,0.1568994587649511
43.64203827340191,3.9385986328125,0.11984480531089248
43.640050633346945,3.85345458984375,0.10178461238311035
43.640050633346945,3.856201171875,0.10866843077990497
43.640050633346945,3.85894775390625,0.12550019901845602
43.640050633346945,3.8616943359375,0.15421427936297438
43.640050633346945,3.86444091796875,0.19070716178980865
43.640050633346945,3.8671875,0.22575154201333256
43.640050633346945,3.86993408203125,0.24935368364635271
43.640050633346945,3.8726806640625,0.25566266733640325
43.640050633346945,3.87542724609375,0.2456686706886789
43.640050633346945,3.878173828125,0.22659356376167447
43.640050633346945,3.88092041015625,0.20807450838134225
43.640050633346945,3.8836669921875,0.19680532245616386
43.640050633346945,3.88641357421875,0.19318795991442808
43.640050633346945,3.88916015625,0.19244530983790759
43.640050633346945,3.89190673828125,0.1886494308602285
43.640050633346945,3.8946533203125,0.17824752747954656
43.640050633346945,3.89739990234375,0.1614605548305342
43.640050633346945,3.900146484375,0.14171929957761972
43.640050633346945,3.90289306640625,0.12371841909523906
43.640050633346945,3.9056396484375,0.11124836927854675
43.640050633346945,3.90838623046875,0.10627351740351915
43.640050633346945,3.9111328125,0.10951717255825509
43.640050633346945,3.91387939453125,0.12135143869174342
43.640050633346945,3.9166259765625,0.14167212141640237
43.640050633346945,3.91937255859375,0.1685802587577569
43.640050633346945,3.922119140625,0.19700346202805732
43.640050633346945,3.92486572265625,0.21901646751785592
43.640050633346945,3.9276123046875,0.22668427613133868
43.640050633346945,3.93035888671875,0.2159890912892202
43.640050633346945,3.93310546875,0.18903495954835414
43.640050633346945,3.93585205078125,0.15303768913701085
43.640050633346945,3.9385986328125,0.11689979145573212
43.638062927534826,3.83697509765625,0.10195012164894804
43.638062927534826,3.8397216796875,0.10670161604406472
43.638062927534826,3.84246826171875,0.11234282044739292
43.638062927534826,3.84521484375,0.11767157499459836
43.638062927534826,3.84796142578125,0.1208364689161314
43.638062927534826,3.8507080078125,0.12114582826751341
43.638062927534826,3.85345458984375,0.12055718651884131
43.638062927534826,3.856201171875,0.12373340124525284
43.638062927534826,3.85894775390625,0.13598361682163101
43.638062927534826,3.8616943359375,0.1597630821971764
43.638062927534826,3.86444091796875,0.1920462992127568
43.638062927534826,3.8671875,0.22488124472863713
43.638062927534826,3.86993408203125,0.24911245777503563
43.638062927534826,3.8726806640625,0.258891955984658
43.638062927534826,3.87542724609375,0.25445267053259446
43.638062927534826,3.878173828125,0.2419136673081004
43.638062927534826,3.88092041015625,0.22995000929808543
43.638062927534826,3.8836669921875,0.22465957997011518
43.638062927534826,3.88641357421875,0.22600885003411547
43.638062927534826,3.88916015625,0.2286020613103016
43.638062927534826,3.89190673828125,0.2257195904154762
43.638062927534826,3.8946533203125,0.21330462258089353
43.638062927534826,3.89739990234375,0.19185679292673977
43.638062927534826,3.900146484375,0.16591696816919946
43.638062927534826,3.90289306640625,0.14165532753893367
43.638062927534826,3.9056396484375,0.1240894581865944
43.638062927534826,3.90838623046875,0.1157804969007695
43.638062927534826,3.9111328125,0.11735868077722146
43.638062927534826,3.91387939453125,0.12853302309761494
43.638062927534826,3.9166259765625,0.1481776537681617
43.638062927534826,3.91937255859375,0.1734068073917972
43.638062927534826,3.922119140625,0.19877393942661473
43.638062927534826,3.92486572265625,0.21694221197502253
43.638062927534826,3.9276123046875,0.22121216759236792
43.638062927534826,3.93035888671875,0.2086819726711365
43.638062927534826,3.93310546875,0.18184940503439379
43.638062927534826,3.93585205078125,0.14744331069982589
43.638062927534826,3.9385986328125,0.11328554883698456
43.636075155965784,3.834228515625,0.10617691664673497
43.636075155965784,3.83697509765625,0.1158097620257512
43.636075155965784,3.8397216796875,0.12445907036120467
43.636075155965784,3.84246826171875,0.13248423710102486
43.636075155965784,3.84521484375,0.13908113740131361
43.636075155965784,3.84796142578125,0.1429402212115582
43.636075155965784,3.8507080078125,0.14371771331604088
43.636075155965784,3.85345458984375,0.1433069864965561
43.636075155965784,3.856201171875,0.1458575490623328
43.636075155965784,3.85894775390625,0.1559860840503998
43.636075155965784,3.8616943359375,0.17584217348619566
43.636075155965784,3.86444091796875,0.20296064837025998
43.636075155965784,3.8671875,0.23073348118049217
43.636075155965784,3.86993408203125,0.25151295385619865
43.636075155965784,3.8726806640625,0.26049620881498375
43.636075155965784,3.87542724609375,0.2582477772535278
43.636075155965784,3.878173828125,0.2505784588485371
43.636075155965784,3.88092041015625,0.24547713027753235
43.636075155965784,3.8836669921875,0.24829061976518746
43.636075155965784,3.88641357421875,0.25825693595374344
43.636075155965784,3.88916015625,0.2690498618378942
43.636075155965784,3.89190673828125,0.27268343663965006
43.636075155965784,3.8946533203125,0.26385107580447437
43.636075155965784,3.89739990234375,0.24243523919074525
43.636075155965784,3.900146484375,0.2133068446850363
43.636075155965784,3.90289306640625,0.18371075027048936
43.636075155965784,3.9056396484375,0.15998690367473345
43.636075155965784,3.90838623046875,0.14573734277811268
43.636075155965784,3.9111328125,0.14197431133970312
43.636075155965784,3.91387939453125,0.14806858193341338
43.636075155965784,3.9166259765625,0.16217189259967452
43.636075155965784,3.91937255859375,0.1809111829020116
43.636075155965784,3.922119140625,0.1991689105847238
43.636075155965784,3.92486572265625,0.21083973535859288
43.636075155965784,3.9276123046875,0.2107383401840313
43.636075155965784,3.93035888671875,0.19684865186357692
43.636075155965784,3.93310546875,0.17140975618812165
43.636075155965784,3.93585205078125,0.13989304930219812
43.636075155965784,3.9385986328125,0.10852144046761922
43.63408731864002,3.834228515625,0.10842594116196606
43.63408731864002,3.83697509765625,0.12270352439362447
43.63408731864002,3.8397216796875,0.13475956029698796
43.63408731864002,3.84246826171875,0.14487679144980664
43.63408731864002,3.84521484375,0.15290299817600822
43.63408731864002,3.84796142578125,0.15844387450485456
43.63408731864002,3.8507080078125,0.16177901175755413
43.63408731864002,3.85345458984375,0.16473979871509176
43.63408731864002,3.856201171875,0.17059801347098716
43.63408731864002,3.85894775390625,0.18253344737880134
43.63408731864002,3.8616943359375,0.20139061712591302
43.63408731864002,3.86444091796875,0.22433807788464002
43.63408731864002,3.8671875,0.2456785729079784
43.63408731864002,3.86993408203125,0.25958650555158086
43.63408731864002,3.8726806640625,0.26330336077123606
43.63408731864002,3.87542724609375,0.2590752415825463
43.63408731864002,3.878173828125,0.25362298772054465
43.63408731864002,3.88092041015625,0.2549325273560805
43.63408731864002,3.8836669921875,0.2677051943821702
43.63408731864002,3.88641357421875,0.29024394791956953
43.63408731864002,3.88916015625,0.3149400001779086
43.63408731864002,3.89190673828125,0.33192815949977406
43.63408731864002,3.8946533203125,0.33364000834386814
43.63408731864002,3.89739990234375,0.3180350290343208
43.63408731864002,3.900146484375,0.2890733944206962
43.63408731864002,3.90289306640625,0.2543606600950637
43.63408731864002,3.9056396484375,0.22167877655920135
43.63408731864002,3.90838623046875,0.19652423503527633
43.63408731864002,3.9111328125,0.18142333037071828
43.63408731864002,3.91387939453125,0.17639431275058637
43.63408731864002,3.9166259765625,0.17959172722809155
43.63408731864002,3.91937255859375,0.18768534067051865
43.63408731864002,3.922119140625,0.1962026185775176
43.63408731864002,3.92486572265625,0.2002716079564773
43.63408731864002,3.9276123046875,0.1959026136934694
43.63408731864002,3.93035888671875,0.18144317348746047
43.63408731864002,3.93310546875,0.15831351922495712
43.63408731864002,3.93585205078125,0.1303259657842287
43.63408731864002,3.9385986328125,0.10201205048302019
43.63209941555776,3.834228515625,0.10527161597080437
43.63209941555776,3.83697509765625,0.1224216587842957
43.63209941555776,3.8397216796875,0.13631480672220034
43.63209941555776,3.84246826171875,0.14725494601923522
43.63209941555776,3.84521484375,0.15594378938593445
43.63209941555776,3.84796142578125,0.16319067519595154
43.63209941555776,3.8507080078125,0.17017320859480126
43.63209941555776,3.85345458984375,0.17881234327679196
43.63209941555776,3.856201171875,0.19142834381793328
43.63209941555776,3.85894775390625,0.20934077388801162
43.63209941555776,3.8616943359375,0.23125874868586388
43.63209941555776,3.86444091796875,0.2529379018632325
43.63209941555776,3.8671875,0.26876710867397774
43.63209941555776,3.86993408203125,0.2745557127042146
43.63209941555776,3.8726806640625,0.27016459670661164
43.63209941555776,3.87542724609375,0.2606358982301344
43.63209941555776,3.878173828125,0.25479278409425454
43.63209941555776,3.88092041015625,0.26143567756735114
43.63209941555776,3.8836669921875,0.28492255211684514
43.63209941555776,3.88641357421875,0.32259637059459695
43.63209941555776,3.88916015625,0.3653833744001122
43.63209941555776,3.89190673828125,0.40111497439094834
43.63209941555776,3.8946533203125,0.41912920071146204
43.63209941555776,3.89739990234375,0.4142559667407771
43.63209941555776,3.900146484375,0.38827848098863166
43.63209941555776,3.90289306640625,0.3483305349867083
43.63209941555776,3.9056396484375,0.303650089424129
43.63209941555776,3.90838623046875,0.26250915305829614
43.63209941555776,3.9111328125,0.23027240022355533
43.63209941555776,3.91387939453125,0.20883818400632984
43.63209941555776,3.9166259765625,0.1971953527541229
43.63209941555776,3.91937255859375,0.1924000922252858
43.63209941555776,3.922119140625,0.19047184648005525
43.63209941555776,3.92486572265625,0.18722025603185904
43.63209941555776,3.9276123046875,0.17916968971170952
43.63209941555776,3.93035888671875,0.16451878434815395
43.63209941555776,3.93310546875,0.1436727591511821
43.63209941555776,3.93585205078125,0.11890012081700276
43.630111446719205,3.83697509765625,0.11642861897423855
43.630111446719205,3.8397216796875,0.1300638045395382
43.630111446719205,3.84246826171875,0.1400773558428574
43.630111446719205,3.84521484375,0.1480925159735193
43.630111446719205,3.84796142578125,0.15618789300613867
43.630111446719205,3.8507080078125,0.16656678066386124
43.630111446719205,3.85345458984375,0.18145722637949416
43.630111446719205,3.856201171875,0.202485784314705
43.630111446719205,3.85894775390625,0.2292160477681067
43.630111446719205,3.8616943359375,0.2579227462328998
43.630111446719205,3.86444091796875,0.28219554290474286
43.630111446719205,3.8671875,0.29558304594363266
43.630111446719205,3.86993408203125,0.29486533947979693
43.630111446719205,3.8726806640625,0.28241508527560855
43.630111446719205,3.87542724609375,0.26651849638469244
43.630111446719205,3.878173828125,0.2588376110254543
43.630111446719205,3.88092041015625,0.2696495512266946
43.630111446719205,3.8836669921875,0.30334380700449565
43.630111446719205,3.88641357421875,0.35643087377983873
43.630111446719205,3.88916015625,0.41837341694623825
43.630111446719205,3.89190673828125,0.47458153463178837
43.630111446719205,3.8946533203125,0.5109869237510847
43.630111446719205,3.89739990234375,0.5187611337783357
43.630111446719205,3.900146484375,0.49686766244013764
43.630111446719205,3.90289306640625,0.4514547213372221
43.630111446719205,3.9056396484375,0.39312773829662784
43.630111446719205,3.90838623046875,0.33338627153775274
43.630111446719205,3.9111328125,0.2812249524108777
43.630111446719205,3.91387939453125,0.2412029210395707
43.630111446719205,3.9166259765625,0.21364456048223301
43.630111446719205,3.91937255859375,0.19606821839136904
43.630111446719205,3.922119140625,0.1845966801504705
43.630111446719205,3.92486572265625,0.17502441540038885
43.630111446719205,3.9276123046875,0.1637427354362738
43.630111446719205,3.93035888671875,0.14854041271795
43.630111446719205,3.93310546875,0.12901756213318422
43.630111446719205,3.93585205078125,0.10641049794057637
43.62812341212461,3.83697509765625,0.10717560419257534
43.62812341212461,3.8397216796875,0.11868842172660328
43.62812341212461,3.84246826171875,0.1262880101424321
43.62812341212461,3.84521484375,0.13239184745893887
43.62812341212461,3.84796142578125,0.14011544991009928
43.62812341212461,3.8507080078125,0.15256552739687518
43.62812341212461,3.85345458984375,0.1724419492534904
43.62812341212461,3.856201171875,0.20117636436812467
43.62812341212461,3.85894775390625,0.23722904369682116
43.62812341212461,3.8616943359375,0.27486989182404037
43.62812341212461,3.86444091796875,0.3053958468534124
43.62812341212461,3.8671875,0.32081133814171003
43.62812341212461,3.86993408203125,0.3178985548798613
43.62812341212461,3.8726806640625,0.30071781786198915
43.62812341212461,3.87542724609375,0.2803886109979172
43.62812341212461,3.878173828125,0.27145299998956424
43.62812341212461,3.88092041015625,0.28598983467075945
43.62812341212461,3.8836669921875,0.32876503791195183
43.62812341212461,3.88641357421875,0.3956402675985519
43.62812341212461,3.88916015625,0.47464533080895543
43.62812341212461,3.89190673828125,0.5488105107399478
43.62812341212461,3.8946533203125,0.6008899647516336
43.62812341212461,3.89739990234375,0.6188279253216947
43.62812341212461,3.900146484375,0.5992121852388257
43.62812341212461,3.90289306640625,0.5474560402140725
43.62812341212461,3.9056396484375,0.4755449046994834
43.62812341212461,3.90838623046875,0.39805528622357367
43.62812341212461,3.9111328125,0.32738891557236793
43.62812341212461,3.91387939453125,0.2705579295401343
43.62812341212461,3.9166259765625,0.22906935561522937
43.62812341212461,3.91937255859375,0.20073272068681194
43.62812341212461,3.922119140625,0.1814715582576918
43.62812341212461,3.92486572265625,0.16665894132851355
43.62812341212461,3.9276123046875,0.15225950448565373
43.62812341212461,3.93035888671875,0.13570294182376758
43.62812341212461,3.93310546875,0.11621317801503009
43.62613531177414,3.8397216796875,0.10568145000230474
43.62613531177414,3.84246826171875,0.1101674773889668
43.62613531177414,3.84521484375,0.11374591585346326
43.62613531177414,3.84796142578125,0.12009996698671643
43.62613531177414,3.8507080078125,0.1328909204894539
43.62613531177414,3.85345458984375,0.15532331445164432
43.62613531177414,3.856201171875,0.18918929140372304
43.62613531177414,3.85894775390625,0.23284651190491254
43.62613531177414,3.8616943359375,0.2796320722016901
43.62613531177414,3.86444091796875,0.3191453931249419
43.62613531177414,3.8671875,0.34160063808721897
43.62613531177414,3.86993408203125,0.34277683744373777
43.62613531177414,3.8726806640625,0.32707511384652993
43.62613531177414,3.87542724609375,0.30723466294219737
43.62613531177414,3.878173828125,0.29995075817576444
43.62613531177414,3.88092041015625,0.3189722970931705
43.62613531177414,3.8836669921875,0.36967726968176634
43.62613531177414,3.88641357421875,0.4474894428826631
43.62613531177414,3.88916015625,0.5390352457111921
43.62613531177414,3.89190673828125,0.6250967763961816
43.62613531177414,3.8946533203125,0.6859091656247214
43.62613531177414,3.89739990234375,0.7074406240821277
43.62613531177414,3.900146484375,0.6853258884733566
43.62613531177414,3.90289306640625,0.6252591992282507
43.62613531177414,3.9056396484375,0.5408218516261554
43.62613531177414,3.90838623046875,0.4490213991121028
43.62613531177414,3.9111328125,0.3644761154392808
43.62613531177414,3.91387939453125,0.2954674586257223
43.62613531177414,3.9166259765625,0.24392446010769264
43.62613531177414,3.91937255859375,0.20766074961900155
43.62613531177414,3.922119140625,0.18239315445448614
43.62613531177414,3.92486572265625,0.16316172415508032
43.62613531177414,3.9276123046875,0.1456421815609188
43.62613531177414,3.93035888671875,0.12714791070896886
43.62613531177414,3.93310546875,0.10689412201535094
43.62414714566806,3.84796142578125,0.10153681893146389
43.62414714566806,3.8507080078125,0.1132441548802239
43.62414714566806,3.85345458984375,0.13574777026829168
43.62414714566806,3.856201171875,0.17160816887691344
43.62414714566806,3.85894775390625,0.22005725677938295
43.62414714566806,3.8616943359375,0.27482723967169564
43.62414714566806,3.86444091796875,0.3249264715665694
43.62414714566806,3.8671875,0.35906509427693317
43.62414714566806,3.86993408203125,0.3712924892186107
43.62414714566806,3.8726806640625,0.36487052744480797
43.62414714566806,3.87542724609375,0.35241606947864224
43.62414714566806,3.878173828125,0.3513444580345497
43.62414714566806,3.88092041015625,0.37639642855357863
43.62414714566806,3.8836669921875,0.4336204802897901
43.62414714566806,3.88641357421875,0.5183390986371895
43.62414714566806,3.88916015625,0.6160649513275224
43.62414714566806,3.89190673828125,0.7057963404528552
43.62414714566806,3.8946533203125,0.7662934863464583
43.62414714566806,3.89739990234375,0.7831523270568831
43.62414714566806,3.900146484375,0.7527237873668127
43.62414714566806,3.90289306640625,0.6821204378719609
43.62414714566806,3.9056396484375,0.5866695617655249
43.62414714566806,3.90838623046875,0.4848496983595631
43.62414714566806,3.9111328125,0.39185124871020954
43.62414714566806,3.91387939453125,0.3156838061246097
43.62414714566806,3.9166259765625,0.2578292710022062
43.62414714566806,3.91937255859375,0.21596457021346777
43.62414714566806,3.922119140625,0.18591882627728323
43.62414714566806,3.92486572265625,0.16285500833889333
43.62414714566806,3.9276123046875,0.14252176750732135
43.62414714566806,3.93035888671875,0.12231751783527667
43.62414714566806,3.93310546875,0.10154011551424925
43.62215891380659,3.85345458984375,0.11928500328386635
43.62215891380659,3.856201171875,0.15483831465347994
43.62215891380659,3.85894775390625,0.20560207149109294
43.62215891380659,3.8616943359375,0.2667437477008216
43.62215891380659,3.86444091796875,0.3278412211036013
43.62215891380659,3.8671875,0.3767989151295811
43.62215891380659,3.86993408203125,0.4057610207381206
43.62215891380659,3.8726806640625,0.41573894830374775
43.62215891380659,3.87542724609375,0.41744250080475814
43.62215891380659,3.878173828125,0.4271540588345273
43.62215891380659,3.88092041015625,0.4594390408423146
43.62215891380659,3.8836669921875,0.5208752262351929
43.62215891380659,3.88641357421875,0.6072630677831388
43.62215891380659,3.88916015625,0.703871813491959
43.62215891380659,3.89190673828125,0.7890015281666206
43.62215891380659,3.8946533203125,0.8412549586564676
43.62215891380659,3.89739990234375,0.8471481756381763
43.62215891380659,3.900146484375,0.8046678297590881
43.62215891380659,3.90289306640625,0.7227056873800566
43.62215891380659,3.9056396484375,0.618018067328172
43.62215891380659,3.90838623046875,0.5095487140890947
43.62215891380659,3.9111328125,0.411745397857832
43.62215891380659,3.91387939453125,0.33135347034151275
43.62215891380659,3.9166259765625,0.2690756816438715
43.62215891380659,3.91937255859375,0.22265629444708107
43.62215891380659,3.922119140625,0.18847916268098144
43.62215891380659,3.92486572265625,0.1622531344196656
43.62215891380659,3.9276123046875,0.14002048906608722
43.62215891380659,3.93035888671875,0.11923174771191258
43.6201706161899,3.85345458984375,0.1097691442541264
43.6201706161899,3.856201171875,0.14423554370611438
43.6201706161899,3.85894775390625,0.19598808489306735
43.6201706161899,3.8616943359375,0.26198199350731444
43.6201706161899,3.86444091796875,0.33311907634970106
43.6201706161899,3.8671875,0.39734894480841576
43.6201706161899,3.86993408203125,0.44537775307854555
43.6201706161899,3.8726806640625,0.4756301377179721
43.6201706161899,3.87542724609375,0.495649468829684
43.6201706161899,3.878173828125,0.518838861564178
43.6201706161899,3.88092041015625,0.5582339620065214
43.6201706161899,3.8836669921875,0.6206562488178734
43.6201706161899,3.88641357421875,0.7031778806764882
43.6201706161899,3.88916015625,0.792277140730795
43.6201706161899,3.89190673828125,0.8671708945121085
43.6201706161899,3.8946533203125,0.9075297827621496
43.6201706161899,3.89739990234375,0.9011563012959968
43.6201706161899,3.900146484375,0.8471845855875502
43.6201706161899,3.90289306640625,0.7554054215139921
43.6201706161899,3.9056396484375,0.6431594565834258
43.6201706161899,3.90838623046875,0.5292249938970128
43.6201706161899,3.9111328125,0.42703055073836715
43.6201706161899,3.91387939453125,0.3422407169869861
43.6201706161899,3.9166259765625,0.2752582853616226
43.6201706161899,3.91937255859375,0.22432295265849558
43.6201706161899,3.922119140625,0.18656262817416125
43.6201706161899,3.92486572265625,0.15821497053195197
43.6201706161899,3.9276123046875,0.1354622171410563
43.6201706161899,3.93035888671875,0.1155613217534232
43.61818225281826,3.85345458984375,0.10826363285052723
43.61818225281826,3.856201171875,0.1420187558763487
43.61818225281826,3.85894775390625,0.19431195010176597
43.61818225281826,3.8616943359375,0.2635476027249366
43.61818225281826,3.86444091796875,0.3421342568260579
43.61818225281826,3.8671875,0.41883225950114267
43.61818225281826,3.86993408203125,0.48386337341029273
43.61818225281826,3.8726806640625,0.5335708454429048
43.61818225281826,3.87542724609375,0.571947930782908
43.61818225281826,3.878173828125,0.6084000087586579
43.61818225281826,3.88092041015625,0.6533123610059901
43.61818225281826,3.8836669921875,0.7134256152773198
43.61818225281826,3.88641357421875,0.7878792578365547
43.61818225281826,3.88916015625,0.8659752194493407
43.61818225281826,3.89190673828125,0.9294738837324699
43.61818225281826,3.8946533203125,0.9598024895208809
43.61818225281826,3.89739990234375,0.9453274936298088
43.61818225281826,3.900146484375,0.8845973191894102
43.61818225281826,3.90289306640625,0.786516096164961
43.61818225281826,3.9056396484375,0.6679945033159993
43.61818225281826,3.90838623046875,0.5476897648381743
43.61818225281826,3.9111328125,0.43890984357000634
43.61818225281826,3.91387939453125,0.34748396943475324
43.61818225281826,3.9166259765625,0.2744954841133559
43.61818225281826,3.91937255859375,0.218990714837581
43.61818225281826,3.922119140625,0.1785424773727379
43.61818225281826,3.92486572265625,0.14938860467531603
43.61818225281826,3.9276123046875,0.12741834271120933
43.61818225281826,3.93035888671875,0.10945415786944096
43.616193823691866,3.85345458984375,0.11255428955141546
43.616193823691866,3.856201171875,0.14609998766818216
43.616193823691866,3.85894775390625,0.19838061383399724
43.616193823691866,3.8616943359375,0.2685770829054237
43.616193823691866,3.86444091796875,0.35041076863433085
43.616193823691866,3.8671875,0.4340299301398035
43.616193823691866,3.86993408203125,0.5102824524027575
43.616193823691866,3.8726806640625,0.5744649936264641
43.616193823691866,3.87542724609375,0.6274587032132157
43.616193823691866,3.878173828125,0.6744227056067831
43.616193823691866,3.88092041015625,0.7225292299800129
43.616193823691866,3.8836669921875,0.77817659147149
43.616193823691866,3.88641357421875,0.843073378394854
43.616193823691866,3.88916015625,0.9104923811595357
43.616193823691866,3.89190673828125,0.9657333602983894
43.616193823691866,3.8946533203125,0.9919209164733074
43.616193823691866,3.89739990234375,0.976635992694443
43.616193823691866,3.900146484375,0.9157971001616253
43.616193823691866,3.90289306640625,0.8156439730346278
43.616193823691866,3.9056396484375,0.6919440370440909
43.616193823691866,3.90838623046875,0.5638316171914949
43.616193823691866,3.9111328125,0.44596937063311015
43.616193823691866,3.91387939453125,0.3458798202119179
43.616193823691866,3.9166259765625,0.26620100177914224
43.616193823691866,3.91937255859375,0.20675990577408546
43.616193823691866,3.922119140625,0.16492556835609595
43.616193823691866,3.92486572265625,0.13620418673672763
43.616193823691866,3.9276123046875,0.11577429237112762
43.61420532881094,3.85345458984375,0.11770769213196924
43.61420532881094,3.856201171875,0.1507708526273968
43.61420532881094,3.85894775390625,0.20159057549831177
43.61420532881094,3.8616943359375,0.26954888200881955
43.61420532881094,3.86444091796875,0.349433838267857
43.61420532881094,3.8671875,0.4331548035772875
43.61420532881094,3.86993408203125,0.5130926980551437
43.61420532881094,3.8726806640625,0.584581033453364
43.61420532881094,3.87542724609375,0.6463158254508979
43.61420532881094,3.878173828125,0.6997786924006931
43.61420532881094,3.88092041015625,0.749074196711271
43.61420532881094,3.8836669921875,0.8001618295165756
43.61420532881094,3.88641357421875,0.8573245284953152
43.61420532881094,3.88916015625,0.9179726875867149
43.61420532881094,3.89190673828125,0.9708452351755198
43.61420532881094,3.8946533203125,1.0
43.61420532881094,3.89739990234375,0.9909502890528955
43.61420532881094,3.900146484375,0.9356802027288124
43.61420532881094,3.90289306640625,0.83690106364819
43.61420532881094,3.9056396484375,0.7091638011420331
43.61420532881094,3.90838623046875,0.5728693713490457
43.61420532881094,3.9111328125,0.4452568895172568
43.61420532881094,3.91387939453125,0.33651249123962884
43.61420532881094,3.9166259765625,0.2511270917595298
43.61420532881094,3.91937255859375,0.18935863482587387
43.61420532881094,3.922119140625,0.14770910818150296
43.61420532881094,3.92486572265625,0.1203963054229759
43.61420532881094,3.9276123046875,0.10170130326792905
43.61221676817572,3.85345458984375,0.11807774154833434
43.61221676817572,3.856201171875,0.14939895964569166
43.61221676817572,3.85894775390625,0.1964353866986861
43.61221676817572,3.8616943359375,0.258543381513589
43.61221676817572,3.86444091796875,0.3314844699259717
43.61221676817572,3.8671875,0.4090838734610356
43.61221676817572,3.86993408203125,0.4856886824974331
43.61221676817572,3.8726806640625,0.5573898465710149
43.61221676817572,3.87542724609375,0.6217180718324362
43.61221676817572,3.878173828125,0.6776163109336965
43.61221676817572,3.88092041015625,0.7269475366988367
43.61221676817572,3.8836669921875,0.775416813698776
43.61221676817572,3.88641357421875,0.8294551013774517
43.61221676817572,3.88916015625,0.8897299871262238
43.61221676817572,3.89190673828125,0.9471878198265578
43.61221676817572,3.8946533203125,0.9855331053158324
43.61221676817572,3.89739990234375,0.9873771726730751
43.61221676817572,3.900146484375,0.9406326247677
43.61221676817572,3.90289306640625,0.8448578805118557
43.61221676817572,3.9056396484375,0.7140267379291126
43.61221676817572,3.90838623046875,0.5705400671973992
43.61221676817572,3.9111328125,0.4347658955509288
43.61221676817572,3.91387939453125,0.3196434301310436
43.61221676817572,3.9166259765625,0.2311512015119206
43.61221676817572,3.91937255859375,0.16942624345748528
43.61221676817572,3.922119140625,0.12964012653206058
43.61221676817572,3.92486572265625,0.1045066732103181
43.6102281417864,3.85345458984375,0.10981912481062107
43.6102281417864,3.856201171875,0.1376206162400486
43.6102281417864,3.85894775390625,0.17841451746304518
43.6102281417864,3.8616943359375,0.23165930097688436
43.6102281417864,3.86444091796875,0.29417100060505197
43.6102281417864,3.8671875,0.3616231842761516
43.6102281417864,3.86993408203125,0.4302065563976261
43.6102281417864,3.8726806640625,0.4969202585586353
43.6102281417864,3.87542724609375,0.5588897810836588
43.6102281417864,3.878173828125,0.6138137046107781
43.6102281417864,3.88092041015625,0.6625452674599762
43.6102281417864,3.8836669921875,0.7110289186978865
43.6102281417864,3.88641357421875,0.7673154057420016
43.6102281417864,3.88916015625,0.8339328691463551
43.6102281417864,3.89190673828125,0.9022605080751671
43.6102281417864,3.8946533203125,0.9542413265870056
43.6102281417864,3.89739990234375,0.9691810176922759
43.6102281417864,3.900146484375,0.9315615130549845
43.6102281417864,3.90289306640625,0.8389197305806325
43.6102281417864,3.9056396484375,0.7056487630611296
43.6102281417864,3.90838623046875,0.5566882654886519
43.6102281417864,3.9111328125,0.4155338036043038
43.6102281417864,3.91387939453125,0.2973908552827412
43.6102281417864,3.9166259765625,0.20900587989702055
43.6102281417864,3.91937255859375,0.1498090280807348
43.6102281417864,3.922119140625,0.11340053018803271
43.608239449643236,3.856201171875,0.11526599300699544
43.608239449643236,3.85894775390625,0.14814711727901475
43.608239449643236,3.8616943359375,0.19100734489470483
43.608239449643236,3.86444091796875,0.2418462660737689
43.608239449643236,3.8671875,0.2979336647688785
43.608239449643236,3.86993408203125,0.35678077308322126
43.608239449643236,3.8726806640625,0.4159604352907209
43.608239449643236,3.87542724609375,0.47251674960679924
43.608239449643236,3.878173828125,0.523911785786006
43.608239449643236,3.88092041015625,0.5711546373502924
43.608239449643236,3.8836669921875,0.6210529016914299
43.608239449643236,3.88641357421875,0.6829730307611251
43.608239449643236,3.88916015625,0.7602074124219023
43.608239449643236,3.89190673828125,0.843235375002272
43.608239449643236,3.8946533203125,0.9113204413016489
43.608239449643236,3.89739990234375,0.9403527410022546
43.608239449643236,3.900146484375,0.9120268965310885
43.608239449643236,3.90289306640625,0.8227884086956746
43.608239449643236,3.9056396484375,0.6881086832981336
43.608239449643236,3.90838623046875,0.535629092045488
43.608239449643236,3.9111328125,0.39175449641773047
43.608239449643236,3.91387939453125,0.27349744268984977
43.608239449643236,3.9166259765625,0.18780833521680634
43.608239449643236,3.91937255859375,0.13299326607365095
43.608239449643236,3.922119140625,0.10099387894912462
43.60625069174642,3.85894775390625,0.11118469631991766
43.60625069174642,3.8616943359375,0.14389423130792403
43.60625069174642,3.86444091796875,0.18379019393656262
43.60625069174642,3.8671875,0.22936290496739223
43.60625069174642,3.86993408203125,0.278831411653592
43.60625069174642,3.8726806640625,0.3298703420116915
43.60625069174642,3.87542724609375,0.3794615389523406
43.60625069174642,3.878173828125,0.4253688295056974
43.60625069174642,3.88092041015625,0.46947656806718624
43.60625069174642,3.8836669921875,0.5199018862964164
43.60625069174642,3.88641357421875,0.5872946671770859
43.60625069174642,3.88916015625,0.675411334932434
43.60625069174642,3.89190673828125,0.7736361505166831
43.60625069174642,3.8946533203125,0.8585771972730114
43.60625069174642,3.89739990234375,0.9028181961395421
43.60625069174642,3.900146484375,0.8853667152816982
43.60625069174642,3.90289306640625,0.8015787009383775
43.60625069174642,3.9056396484375,0.6677669891424288
43.60625069174642,3.90838623046875,0.5139106319352602
43.60625069174642,3.9111328125,0.36914401734747787
43.60625069174642,3.91387939453125,0.2523050440188508
43.60625069174642,3.9166259765625,0.17052310832537504
43.60625069174642,3.91937255859375,0.12088680861187374
43.604261868096174,3.86444091796875,0.1304677775458915
43.604261868096174,3.8671875,0.16698782479514443
43.604261868096174,3.86993408203125,0.20787830097128582
43.604261868096174,3.8726806640625,0.25067801786190824
43.604261868096174,3.87542724609375,0.2923293143939832
43.604261868096174,3.878173828125,0.3310989142026602
43.604261868096174,3.88092041015625,0.36993389494835643
43.604261868096174,3.8836669921875,0.4182892910588528
43.604261868096174,3.88641357421875,0.4880927893296634
43.604261868096174,3.88916015625,0.5839174818679792
43.604261868096174,3.89190673828125,0.6949410831229419
43.604261868096174,3.8946533203125,0.7960891003766526
43.604261868096174,3.89739990234375,0.8570354721718813
43.604261868096174,3.900146484375,0.8537297766506624
43.604261868096174,3.90289306640625,0.7795087034277959
43.604261868096174,3.9056396484375,0.6503410302441032
43.604261868096174,3.90838623046875,0.4976132399625505
43.604261868096174,3.9111328125,0.3530206749063859
43.604261868096174,3.91387939453125,0.23771289733842216
43.604261868096174,3.9166259765625,0.15955837777821918
43.604261868096174,3.91937255859375,0.1147337340616383
43.602272978692746,3.8671875,0.11795752598417249
43.602272978692746,3.86993408203125,0.15063919782507246
43.602272978692746,3.8726806640625,0.18495740898124077
43.602272978692746,3.87542724609375,0.21801038161148498
43.602272978692746,3.878173828125,0.24861995258313413
43.602272978692746,3.88092041015625,0.2805582908081009
43.602272978692746,3.8836669921875,0.3241441705333379
43.602272978692746,3.88641357421875,0.39227217044937
43.602272978692746,3.88916015625,0.49078464524494736
43.602272978692746,3.89190673828125,0.6100417722108201
43.602272978692746,3.8946533203125,0.7249482368267218
43.602272978692746,3.89739990234375,0.8032362500909189
43.602272978692746,3.900146484375,0.817602985730693
43.602272978692746,3.90289306640625,0.7581261494044713
43.602272978692746,3.9056396484375,0.6386285797642901
43.602272978692746,3.90838623046875,0.49035573127547527
43.602272978692746,3.9111328125,0.3470194025095532
43.602272978692746,3.91387939453125,0.23257022133462435
43.602272978692746,3.9166259765625,0.15652859603076952
43.602272978692746,3.91937255859375,0.11493348345072087
43.600284023536325,3.86993408203125,0.1086713181998066
43.600284023536325,3.8726806640625,0.13458756088513787
43.600284023536325,3.87542724609375,0.15923604950988052
43.600284023536325,3.878173828125,0.18195543910168338
43.600284023536325,3.88092041015625,0.2068297326878525
43.600284023536325,3.8836669921875,0.24415123716130083
43.600284023536325,3.88641357421875,0.30700105486609297
43.600284023536325,3.88916015625,0.40254906799563933
43.600284023536325,3.89190673828125,0.5236167469339846
43.600284023536325,3.8946533203125,0.6471563861132074
43.600284023536325,3.89739990234375,0.7408174203373248
43.600284023536325,3.900146484375,0.7747735464225214
43.600284023536325,3.90289306640625,0.7350460279430417
43.600284023536325,3.9056396484375,0.6313068846670842
43.600284023536325,3.90838623046875,0.49240634301029224
43.600284023536325,3.9111328125,0.3526316027916387
43.600284023536325,3.91387939453125,0.23860431722876704
43.600284023536325,3.9166259765625,0.16241845061404353
43.600284023536325,3.91937255859375,0.12126539243633398
43.600284023536325,3.922119140625,0.1026907540773424
43.59829500262717,3.87542724609375,0.11568173186681507
43.59829500262717,3.878173828125,0.1321282745862275
43.59829500262717,3.88092041015625,0.1512263006879125
43.59829500262717,3.8836669921875,0.18219542442682374
43.59829500262717,3.88641357421875,0.23719595850699723
43.59829500262717,3.88916015625,0.3242479656588028
43.59829500262717,3.89190673828125,0.4394251795996071
43.59829500262717,3.8946533203125,0.5638493549086961
43.59829500262717,3.89739990234375,0.6677622498087016
43.59829500262717,3.900146484375,0.7207267496401785
43.59829500262717,3.90289306640625,0.7048076135197417
43.59829500262717,3.9056396484375,0.6237322592138582
43.59829500262717,3.90838623046875,0.5011533265248097
43.59829500262717,3.9111328125,0.3694184498167854
43.59829500262717,3.91387939453125,0.2566770487942646
43.59829500262717,3.9166259765625,0.17815535966766088
43.59829500262717,3.91937255859375,0.13383665001424588
43.59829500262717,3.922119140625,0.11282779068834971
43.59829500262717,3.92486572265625,0.10146560151037864
43.59630591596549,3.88092041015625,0.1121037806623087
43.59630591596549,3.8836669921875,0.13743036545877924
43.59630591596549,3.88641357421875,0.18306384611826076
43.59630591596549,3.88916015625,0.25705745899875615
43.59630591596549,3.89190673828125,0.3588935460926955
43.59630591596549,3.8946533203125,0.4755274681118947
43.59630591596549,3.89739990234375,0.5826211854800163
43.59630591596549,3.900146484375,0.6517771886754243
43.59630591596549,3.90289306640625,0.6621363932490523
43.59630591596549,3.9056396484375,0.6103773104483171
43.59630591596549,3.90838623046875,0.5122550091351592
43.59630591596549,3.9111328125,0.39508047627565135
43.59630591596549,3.91387939453125,0.2864564043449339
43.59630591596549,3.9166259765625,0.2045920739809078
43.59630591596549,3.91937255859375,0.15373499974438315
43.59630591596549,3.922119140625,0.12646556536849854
43.59630591596549,3.92486572265625,0.11080191647603993
43.59431676355148,3.8836669921875,0.105450843211239
43.59431676355148,3.88641357421875,0.1412387237133771
43.59431676355148,3.88916015625,0.19954239552036385
43.59431676355148,3.89190673828125,0.28280902867777175
43.59431676355148,3.8946533203125,0.38452692465679933
43.59431676355148,3.89739990234375,0.48781206685297535
43.59431676355148,3.900146484375,0.5688071468691464
43.59431676355148,3.90289306640625,0.6053907180226356
43.59431676355148,3.9056396484375,0.5872191096005798
43.59431676355148,3.90838623046875,0.520515913852459
43.59431676355148,3.9111328125,0.4249076961264377
43.59431676355148,3.91387939453125,0.32502446296269333
43.59431676355148,3.9166259765625,0.24104824286919654
43.59431676355148,3.91937255859375,0.18210579742075844
43.59431676355148,3.922119140625,0.14568415246242178
43.59431676355148,3.92486572265625,0.12281467805825831
43.59431676355148,3.9276123046875,0.1046966853344392
43.59232754538541,3.88641357421875,0.10781265134748308
43.59232754538541,3.88916015625,0.15030407106187607
43.59232754538541,3.89190673828125,0.21335319508029207
43.59232754538541,3.8946533203125,0.29649498011542486
43.59232754538541,3.89739990234375,0.3908304353345486
43.59232754538541,3.900146484375,0.47853195222672373
43.59232754538541,3.90289306640625,0.5379877556119356
43.59232754538541,3.9056396484375,0.5531053905801842
43.59232754538541,3.90838623046875,0.5207399209510556
43.59232754538541,3.9111328125,0.451688725813456
43.59232754538541,3.91387939453125,0.36570530184303257
43.59232754538541,3.9166259765625,0.28332216195208654
43.59232754538541,3.91937255859375,0.21788949267521282
43.59232754538541,3.922119140625,0.17203588935054553
43.59232754538541,3.92486572265625,0.1404938369458426
43.59232754538541,3.9276123046875,0.11615164148518378
43.59033826146748,3.88916015625,0.10911610160978986
43.59033826146748,3.89190673828125,0.15404973150588405
43.59033826146748,3.8946533203125,0.2190959114256482
43.59033826146748,3.89739990234375,0.3022254128012107
43.59033826146748,3.900146484375,0.3916413078683862
43.59033826146748,3.90289306640625,0.4675513216204434
43.59033826146748,3.9056396484375,0.5102594652701405
43.59033826146748,3.90838623046875,0.5092559067828023
43.59033826146748,3.9111328125,0.4673852593140917
43.59033826146748,3.91387939453125,0.39892350280086614
43.59033826146748,3.9166259765625,0.3231609942403
43.59033826146748,3.91937255859375,0.25595545957266413
43.59033826146748,3.922119140625,0.2039005235308436
43.59033826146748,3.92486572265625,0.16502948713496976
43.59033826146748,3.9276123046875,0.13419186764994562
43.59033826146748,3.93035888671875,0.1076056502253705
43.588348911797915,3.89190673828125,0.10838187584265395
43.588348911797915,3.8946533203125,0.15939973695366422
43.588348911797915,3.89739990234375,0.2321296950849892
43.588348911797915,3.900146484375,0.31936121986068855
43.588348911797915,3.90289306640625,0.4035762240605984
43.588348911797915,3.9056396484375,0.4638233009217848
43.588348911797915,3.90838623046875,0.4854415161565849
43.588348911797915,3.9111328125,0.46596357631818414
43.588348911797915,3.91387939453125,0.41517093333317306
43.588348911797915,3.9166259765625,0.3502226420868728
43.588348911797915,3.91937255859375,0.2874237908808939
43.588348911797915,3.922119140625,0.23520061834275838
43.588348911797915,3.92486572265625,0.19347419834484664
43.588348911797915,3.9276123046875,0.15855209981091856
43.588348911797915,3.93035888671875,0.12772699290265802
43.588348911797915,3.93310546875,0.1002917246179265
43.58635949637694,3.8946533203125,0.12212726591429214
43.58635949637694,3.89739990234375,0.18758348102024713
43.58635949637694,3.900146484375,0.2702610797286454
43.58635949637694,3.90289306640625,0.35452756880262287
43.58635949637694,3.9056396484375,0.4201770589025604
43.58635949637694,3.90838623046875,0.45192471767048487
43.58635949637694,3.9111328125,0.445544717583272
43.58635949637694,3.91387939453125,0.4084895421333773
43.58635949637694,3.9166259765625,0.3558399730565458
43.58635949637694,3.91937255859375,0.3026657280000997
43.58635949637694,3.922119140625,0.25696888044855404
43.58635949637694,3.92486572265625,0.21873447029779874
43.58635949637694,3.9276123046875,0.18465670598510145
43.58635949637694,3.93035888671875,0.15267952734239112
43.58635949637694,3.93310546875,0.12286426822034159
43.58437001520479,3.8946533203125,0.10918361505594137
43.58437001520479,3.89739990234375,0.17133312129924808
43.58437001520479,3.900146484375,0.24819693396045853
43.58437001520479,3.90289306640625,0.3252483066959721
43.58437001520479,3.9056396484375,0.38452335151798017
43.58437001520479,3.90838623046875,0.41321734087579626
43.58437001520479,3.9111328125,0.4087676445125938
43.58437001520479,3.91387939453125,0.3787289011694055
43.58437001520479,3.9166259765625,0.3367303172186941
43.58437001520479,3.91937255859375,0.29560689187585815
43.58437001520479,3.922119140625,0.26129140932314593
43.58437001520479,3.92486572265625,0.23239176406993997
43.58437001520479,3.9276123046875,0.20494126678451344
43.58437001520479,3.93035888671875,0.17675912344817538
43.58437001520479,3.93310546875,0.14817048862343216
43.58437001520479,3.93585205078125,0.12061071754788641
43.582380468281684,3.8946533203125,0.11958960678403191
43.582380468281684,3.89739990234375,0.1816191833951874
43.582380468281684,3.900146484375,0.25159235595274687
43.582380468281684,3.90289306640625,0.31555444143454947
43.582380468281684,3.9056396484375,0.35895042263986
43.582380468281684,3.90838623046875,0.37374987810305005
43.582380468281684,3.9111328125,0.3615017141691116
43.582380468281684,3.91387939453125,0.3315703523626982
43.582380468281684,3.9166259765625,0.29663086102567965
43.582380468281684,3.91937255859375,0.26681685918815556
43.582380468281684,3.922119140625,0.24527949150463493
43.582380468281684,3.92486572265625,0.22874073464558153
43.582380468281684,3.9276123046875,0.21215219611045488
43.582380468281684,3.93035888671875,0.19262530321491383
43.582380468281684,3.93310546875,0.1700199095902449
43.582380468281684,3.93585205078125,0.14564646095788603
43.582380468281684,3.9385986328125,0.12111979446986958
43.580390855607845,3.8946533203125,0.14927560874777934
43.580390855607845,3.89739990234375,0.21252287104664636
43.580390855607845,3.900146484375,0.2740286062305701
43.580390855607845,3.90289306640625,0.3205419033012518
43.580390855607845,3.9056396484375,0.3419599059473982
43.580390855607845,3.90838623046875,0.3364198889888263
43.580390855607845,3.9111328125,0.3106689445499548
43.580390855607845,3.91387939453125,0.27629361360924337
43.580390855607845,3.9166259765625,0.24484451166308846
43.580390855607845,3.91937255859375,0.223474718113848
43.580390855607845,3.922119140625,0.2126322145650936
43.580390855607845,3.92486572265625,0.20761145812164677
43.580390855607845,3.9276123046875,0.20272642176395322
43.580390855607845,3.93035888671875,0.19443023758854938
43.580390855607845,3.93310546875,0.18168947519028586
43.580390855607845,3.93585205078125,0.16494555978401623
43.580390855607845,3.9385986328125,0.1452491761935464
43.580390855607845,3.94134521484375,0.12388269673394216
43.580390855607845,3.944091796875,0.10211703815445115
43.5784011771835,3.89190673828125,0.12803694231929522
43.5784011771835,3.8946533203125,0.19110646824224828
43.5784011771835,3.89739990234375,0.25489515090383214
43.5784011771835,3.900146484375,0.30593536933123183
43.5784011771835,3.90289306640625,0.33243266031187335
43.5784011771835,3.9056396484375,0.3296177878772337
43.5784011771835,3.90838623046875,0.30230862585545093
43.5784011771835,3.9111328125,0.26225562184836754
43.5784011771835,3.91387939453125,0.22246996169629604
43.5784011771835,3.9166259765625,0.19252681320834508
43.5784011771835,3.91937255859375,0.1762962130149039
43.5784011771835,3.922119140625,0.17199004243900554
43.5784011771835,3.92486572265625,0.1744635656653162
43.5784011771835,3.9276123046875,0.17844162229295368
43.5784011771835,3.93035888671875,0.18044335396463942
43.5784011771835,3.93310546875,0.17874337851339533
43.5784011771835,3.93585205078125,0.17257936205992627
43.5784011771835,3.9385986328125,0.16171987012242903
43.5784011771835,3.94134521484375,0.14646657193645796
43.5784011771835,3.944091796875,0.12765055081644283
43.5784011771835,3.94683837890625,0.10648498305410371
43.576411433008886,3.88916015625,0.10238978358305804
43.576411433008886,3.89190673828125,0.1655665628194312
43.576411433008886,3.8946533203125,0.2358333660883474
43.576411433008886,3.89739990234375,0.2980869365887389
43.576411433008886,3.900146484375,0.33700849066694977
43.576411433008886,3.90289306640625,0.3432197708187335
43.576411433008886,3.9056396484375,0.31770728737473347
43.576411433008886,3.90838623046875,0.271593633722125
43.576411433008886,3.9111328125,0.22050044691166037
43.576411433008886,3.91387939453125,0.17743018219456191
43.576411433008886,3.9166259765625,0.14893882302396025
43.576411433008886,3.91937255859375,0.13538850026422034
43.576411433008886,3.922119140625,0.13327374978291526
43.576411433008886,3.92486572265625,0.1379453822859356
43.576411433008886,3.9276123046875,0.14561351651141838
43.576411433008886,3.93035888671875,0.1538779266363314
43.576411433008886,3.93310546875,0.16106730602700794
43.576411433008886,3.93585205078125,0.165516434455133
43.576411433008886,3.9385986328125,0.16552497078375586
43.576411433008886,3.94134521484375,0.15984670537022874
43.576411433008886,3.944091796875,0.14810575104650847
43.576411433008886,3.94683837890625,0.13087078417065823
43.576411433008886,3.9495849609375,0.10955933824654082
43.57442162308422,3.88916015625,0.1281676032619211
43.57442162308422,3.89190673828125,0.19994506779716376
43.57442162308422,3.8946533203125,0.27421136803445284
43.57442162308422,3.89739990234375,0.33245681698604057
43.57442162308422,3.900146484375,0.3588687498917152
43.57442162308422,3.90289306640625,0.3471779732338322
43.57442162308422,3.9056396484375,0.30378497045886477
43.57442162308422,3.90838623046875,0.24486359732463014
43.57442162308422,3.9111328125,0.18822600705729123
43.57442162308422,3.91387939453125,0.14545017602833243
43.57442162308422,3.9166259765625,0.11945257620581023
43.57442162308422,3.91937255859375,0.10724156739912684
43.57442162308422,3.922119140625,0.10409029735383074
43.57442162308422,3.92486572265625,0.10637178656237388
43.57442162308422,3.9276123046875,0.11236448769853138
43.57442162308422,3.93035888671875,0.12149808160828918
43.57442162308422,3.93310546875,0.13301107565990936
43.57442162308422,3.93585205078125,0.14509492677580904
43.57442162308422,3.9385986328125,0.155043277435311
43.57442162308422,3.94134521484375,0.1601188206767718
43.57442162308422,3.944091796875,0.15838296895403314
43.57442162308422,3.94683837890625,0.14907602662775524
43.57442162308422,3.9495849609375,0.13270553393793783
43.57442162308422,3.95233154296875,0.11101784383700417
43.57243174740974,3.88916015625,0.14895993631536944
43.57243174740974,3.89190673828125,0.2252865505715456
43.57243174740974,3.8946533203125,0.29971098509950633
43.57243174740974,3.89739990234375,0.35201650835208353
43.57243174740974,3.900146484375,0.3672108246240478
43.57243174740974,3.90289306640625,0.3422989252420934
43.57243174740974,3.9056396484375,0.28796894153352165
43.57243174740974,3.90838623046875,0.22352066087364253
43.57243174740974,3.9111328125,0.16709994250735286
43.57243174740974,3.91387939453125,0.127884421544395
43.57243174740974,3.9166259765625,0.10528379156032623
43.57243174740974,3.93310546875,0.10151130769892175
43.57243174740974,3.93585205078125,0.11652940428890463
43.57243174740974,3.9385986328125,0.13290926541384404
43.57243174740974,3.94134521484375,0.14708125980475845
43.57243174740974,3.944091796875,0.1558232902334262
43.57243174740974,3.94683837890625,0.15685951615044044
43.57243174740974,3.9495849609375,0.14916073349732847
43.57243174740974,3.95233154296875,0.13319350742330718
43.57243174740974,3.955078125,0.11096241290372706
43.570441805985645,3.88916015625,0.16257405865856214
43.570441805985645,3.89190673828125,0.2392979974033495
43.570441805985645,3.8946533203125,0.3105154595077852
43.570441805985645,3.89739990234375,0.3559867231451315
43.570441805985645,3.900146484375,0.3625206193127011
43.570441805985645,3.90289306640625,0.3300721648765085
43.570441805985645,3.9056396484375,0.2720458681056851
43.570441805985645,3.90838623046875,0.20873854100741587
43.570441805985645,3.9111328125,0.15697931657110334
43.570441805985645,3.91387939453125,0.12314699770603364
43.570441805985645,3.9166259765625,0.10393378789423276
43.570441805985645,3.9385986328125,0.10496492205992658
43.570441805985645,3.94134521484375,0.12442853952078899
43.570441805985645,3.944091796875,0.141422098700993
43.570441805985645,3.94683837890625,0.15260967491978591
43.570441805985645,3.9495849609375,0.15540321945612548
43.570441805985645,3.95233154296875,0.14844974741047567
43.570441805985645,3.955078125,0.13215971212930638
43.570441805985645,3.95782470703125,0.1088325345484517
43.56845179881219,3.88641357421875,0.10562334456131767
43.56845179881219,3.88916015625,0.1695984898020427
43.56845179881219,3.89190673828125,0.24371048490004085
43.56845179881219,3.8946533203125,0.30965943515654104
43.56845179881219,3.89739990234375,0.3484234995266867
43.56845179881219,3.900146484375,0.3491176057613332
43.56845179881219,3.90289306640625,0.31406396356654753
43.56845179881219,3.9056396484375,0.2578812880791242
43.56845179881219,3.90838623046875,0.20010887671926902
43.56845179881219,3.9111328125,0.15517336948660282
43.56845179881219,3.91387939453125,0.12679252540092723
43.56845179881219,3.9166259765625,0.11003502905190811
43.56845179881219,3.944091796875,0.11937914786832608
43.56845179881219,3.94683837890625,0.13796644040762773
43.56845179881219,3.9495849609375,0.1504545909720244
43.56845179881219,3.95233154296875,0.15382451095160585
43.56845179881219,3.955078125,0.14642798799794657
43.56845179881219,3.95782470703125,0.12881115891149392
43.56845179881219,3.9605712890625,0.10383634462457755
43.566461725889596,3.88641357421875,0.11000522077777555
43.566461725889596,3.88916015625,0.17253970263702634
43.566461725889596,3.89190673828125,0.24290502313573462
43.566461725889596,3.8946533203125,0.30319791946565217
43.566461725889596,3.89739990234375,0.33615201076129664
43.566461725889596,3.900146484375,0.33319145196420347
43.566461725889596,3.90289306640625,0.2983865955554665
43.566461725889596,3.9056396484375,0.24654312893343786
43.566461725889596,3.90838623046875,0.1954993420809182
43.566461725889596,3.9111328125,0.1569912243139482
43.566461725889596,3.91387939453125,0.1326417610827407
43.566461725889596,3.9166259765625,0.11694620198205734
43.566461725889596,3.91937255859375,0.10319534799976923
43.566461725889596,3.94683837890625,0.11700618251234308
43.566461725889596,3.9495849609375,0.13616670672132214
43.566461725889596,3.95233154296875,0.14882947020875156
43.566461725889596,3.955078125,0.1515140810923687
43.566461725889596,3.95782470703125,0.14250824651439328
43.566461725889596,3.9605712890625,0.12282845040681478
43.5644715872181,3.88641357421875,0.11269639123947975
43.5644715872181,3.88916015625,0.1741142685936442
43.5644715872181,3.89190673828125,0.24147511223272333
43.5644715872181,3.8946533203125,0.2973200416347382
43.5644715872181,3.89739990234375,0.32594293416266845
43.5644715872181,3.900146484375,0.32061311483431554
43.5644715872181,3.90289306640625,0.2865725782145665
43.5644715872181,3.9056396484375,0.23838380580767887
43.5644715872181,3.90838623046875,0.19217779109889022
43.5644715872181,3.9111328125,0.1575327728269874
43.5644715872181,3.91387939453125,0.13484494871061528
43.5644715872181,3.9166259765625,0.11883940792817581
43.5644715872181,3.91937255859375,0.10388322158156282
43.5644715872181,3.9495849609375,0.11628140249283687
43.5644715872181,3.95233154296875,0.13545683055333402
43.5644715872181,3.955078125,0.14745125987368252
43.5644715872181,3.95782470703125,0.14844065072645699
43.5644715872181,3.9605712890625,0.1369747525068436
43.5644715872181,3.96331787109375,0.11485801087435098
43.56248138279793,3.88641357421875,0.11420850033279638
43.56248138279793,3.88916015625,0.17571875193823508
43.56248138279793,3.89190673828125,0.24201671958545884
43.56248138279793,3.8946533203125,0.29571105226353656
43.56248138279793,3.89739990234375,0.3219178032160705
43.56248138279793,3.900146484375,0.31492109591204087
43.56248138279793,3.90289306640625,0.2805671523195664
43.56248138279793,3.9056396484375,0.23319869729272363
43.56248138279793,3.90838623046875,0.1879661804582851
43.56248138279793,3.9111328125,0.1534278296187261
43.56248138279793,3.91387939453125,0.12975899979519942
43.56248138279793,3.9166259765625,0.11240700287980813
43.56248138279793,3.95233154296875,0.11705972059161492
43.56248138279793,3.955078125,0.13612817424108528
43.56248138279793,3.95782470703125,0.14676202412807224
43.56248138279793,3.9605712890625,0.145074767521356
43.56248138279793,3.96331787109375,0.13031879634784407
43.56248138279793,3.966064453125,0.10548543666704623
43.560491112629286,3.88641357421875,0.11415048226655988
43.560491112629286,3.88916015625,0.1769114963174966
43.560491112629286,3.89190673828125,0.24422123883579622
43.560491112629286,3.8946533203125,0.29828106894646866
43.560491112629286,3.89739990234375,0.3240936186664727
43.560491112629286,3.900146484375,0.31597743110294346
43.560491112629286,3.90289306640625,0.27981601221890384
43.560491112629286,3.9056396484375,0.229953501098744
43.560491112629286,3.90838623046875,0.18159324461243925
43.560491112629286,3.9111328125,0.14359746576135882
43.560491112629286,3.91387939453125,0.1168300172696062
43.560491112629286,3.955078125,0.1201099676034241
43.560491112629286,3.95782470703125,0.13863943163116393
43.560491112629286,3.9605712890625,0.14675332422411
43.560491112629286,3.96331787109375,0.14108080045627527
43.560491112629286,3.966064453125,0.12222743685810654
43.55850077671243,3.88641357421875,0.1116684117442487
43.55850077671243,3.88916015625,0.17602646362194985
43.55850077671243,3.89190673828125,0.24553303553057712
43.55850077671243,3.8946533203125,0.30170035853699523
43.55850077671243,3.89739990234375,0.3286743440335476
43.55850077671243,3.900146484375,0.319992895660578
43.55850077671243,3.90289306640625,0.2811032258699416
43.55850077671243,3.9056396484375,0.2265505614811672
43.55850077671243,3.90838623046875,0.1724587794400695
43.55850077671243,3.9111328125,0.12901485099766122
43.55850077671243,3.955078125,0.10169268804274754
43.55850077671243,3.95782470703125,0.12562594614914474
43.55850077671243,3.9605712890625,0.14232452715398147
43.55850077671243,3.96331787109375,0.14629605728527864
43.55850077671243,3.966064453125,0.13549710119421546
43.55850077671243,3.96881103515625,0.11245092181126107
43.55651037504758,3.88641357421875,0.10619338843037854
43.55651037504758,3.88916015625,0.17140441405744913
43.55651037504758,3.89190673828125,0.24283845554736427
43.55651037504758,3.8946533203125,0.30138093405904315
43.55651037504758,3.89739990234375,0.33006032068875846
43.55651037504758,3.900146484375,0.32126550267528
43.55651037504758,3.90289306640625,0.27975607372909683
43.55651037504758,3.9056396484375,0.22033160641240238
43.55651037504758,3.90838623046875,0.16039657309388994
43.55651037504758,3.9111328125,0.11182739763410204
43.55651037504758,3.95782470703125,0.10955227003309656
43.55651037504758,3.9605712890625,0.13295069156530487
43.55651037504758,3.96331787109375,0.14619273370349525
43.55651037504758,3.966064453125,0.14477633138052062
43.55651037504758,3.96881103515625,0.12865445273178772
43.55651037504758,3.9715576171875,0.10232551263769556
43.554519907634976,3.88916015625,0.16250296436750153
43.554519907634976,3.89190673828125,0.23426819962860165
43.554519907634976,3.8946533203125,0.2939494134792501
43.554519907634976,3.89739990234375,0.32374342572256215
43.554519907634976,3.900146484375,0.31504940925529595
43.554519907634976,3.90289306640625,0.2719506542372687
43.554519907634976,3.9056396484375,0.2093707897468358
43.554519907634976,3.90838623046875,0.14575926089513117
43.554519907634976,3.9605712890625,0.12081952939036561
43.554519907634976,3.96331787109375,0.1423557020337889
43.554519907634976,3.966064453125,0.1508380916978671
43.554519907634976,3.96881103515625,0.1434957284353775
43.554519907634976,3.9715576171875,0.12253580857785995
43.55252937447482,3.88916015625,0.15022143487125972
43.55252937447482,3.89190673828125,0.2201171151677185
43.55252937447482,3.8946533203125,0.27889248618811885
43.55252937447482,3.89739990234375,0.30855926467906686
43.55252937447482,3.900146484375,0.30003292816593025
43.55252937447482,3.90289306640625,0.25688577367170284
43.55252937447482,3.9056396484375,0.19387340596477493
43.55252937447482,3.90838623046875,0.12982799693943672
43.55252937447482,3.9605712890625,0.10895603531955232
43.55252937447482,3.96331787109375,0.13741807744286122
43.55252937447482,3.966064453125,0.1553546118020313
43.55252937447482,3.96881103515625,0.1574960073056186
43.55252937447482,3.9715576171875,0.14345845661914455
43.55252937447482,3.97430419921875,0.11783394531452904
43.55053877556738,3.88916015625,0.1362576162296073
43.55053877556738,3.89190673828125,0.20237116573341768
43.55053877556738,3.8946533203125,0.25844042525129474
43.55053877556738,3.89739990234375,0.2869879842547394
43.55053877556738,3.900146484375,0.2789594108089846
43.55053877556738,3.90289306640625,0.23752014309674535
43.55053877556738,3.9056396484375,0.1768339357772057
43.55053877556738,3.90838623046875,0.11531052176730766
43.55053877556738,3.9605712890625,0.10060067958757742
43.55053877556738,3.96331787109375,0.1341849368530855
43.55053877556738,3.966064453125,0.1598819979294367
43.55053877556738,3.96881103515625,0.17050780901387624
43.55053877556738,3.9715576171875,0.163334010133858
43.55053877556738,3.97430419921875,0.1411962399466466
43.55053877556738,3.97705078125,0.11128397176337237
43.548548110912876,3.88916015625,0.12208476033950409
43.548548110912876,3.89190673828125,0.1833695411010573
43.548548110912876,3.8946533203125,0.2360008122946587
43.548548110912876,3.89739990234375,0.26352135886255346
43.548548110912876,3.900146484375,0.2571435896839713
43.548548110912876,3.90289306640625,0.21946862017846072
43.548548110912876,3.9056396484375,0.16350858465590024
43.548548110912876,3.90838623046875,0.10650070552830768
43.548548110912876,3.96331787109375,0.13445643875636099
43.548548110912876,3.966064453125,0.16475027181416618
43.548548110912876,3.96881103515625,0.1809114438765337
43.548548110912876,3.9715576171875,0.17865544806443218
43.548548110912876,3.97430419921875,0.1593865760481379
43.548548110912876,3.97705078125,0.12964580936142567
43.54655738051152,3.88916015625,0.1083368244792814
43.54655738051152,3.89190673828125,0.16460843579155224
43.54655738051152,3.8946533203125,0.21425220691300442
43.54655738051152,3.89739990234375,0.24212834451370766
43.54655738051152,3.900146484375,0.23963459058588055
43.54655738051152,3.90289306640625,0.2083531721982671
43.54655738051152,3.9056396484375,0.1594453745161637
43.54655738051152,3.90838623046875,0.10830083919960022
43.54655738051152,3.9605712890625,0.10240777378558175
43.54655738051152,3.96331787109375,0.13798733766139445
43.54655738051152,3.966064453125,0.1684555794469743
43.54655738051152,3.96881103515625,0.18571667751355572
43.54655738051152,3.9715576171875,0.1850671202517753
43.54655738051152,3.97430419921875,0.1671703008472409
43.54655738051152,3.97705078125,0.13787303123314357
43.54655738051152,3.97979736328125,0.10560038775544554
43.544566584363565,3.89190673828125,0.1462020678229891
43.544566584363565,3.8946533203125,0.19378577610664066
43.544566584363565,3.89739990234375,0.2239696355467621
43.544566584363565,3.900146484375,0.2281663061455193
43.544566584363565,3.90289306640625,0.20639359451847875
43.544566584363565,3.9056396484375,0.16722192821242635
43.544566584363565,3.90838623046875,0.12353396473991267
43.544566584363565,3.9605712890625,0.11118983266305016
43.544566584363565,3.96331787109375,0.14223364683297746
43.544566584363565,3.966064453125,0.16803098862873012
43.544566584363565,3.96881103515625,0.18167108762394876
43.544566584363565,3.9715576171875,0.1791610352186252
43.544566584363565,3.97430419921875,0.16114470821503785
43.544566584363565,3.97705078125,0.1327918766401511
43.544566584363565,3.97979736328125,0.1015984349843178
43.54257572246922,3.89190673828125,0.12713967617248337
43.54257572246922,3.8946533203125,0.1729839785659976
43.54257572246922,3.89739990234375,0.20666472440867292
43.54257572246922,3.900146484375,0.21966134275905727
43.54257572246922,3.90289306640625,0.21013955533240689
43.54257572246922,3.9056396484375,0.1835489463055447
43.54257572246922,3.90838623046875,0.1496788083569576
43.54257572246922,3.9111328125,0.11750727229093054
43.54257572246922,3.9605712890625,0.1204620001080259
43.54257572246922,3.96331787109375,0.14328519824927347
43.54257572246922,3.966064453125,0.16042212970213332
43.54257572246922,3.96881103515625,0.16692154897516534
43.54257572246922,3.9715576171875,0.16025004164119355
43.54257572246922,3.97430419921875,0.14146892013073273
43.54257572246922,3.97705078125,0.1150183591137159
43.54058479482875,3.89190673828125,0.10631427189447025
43.54058479482875,3.8946533203125,0.14946116864830897
43.54058479482875,3.89739990234375,0.18599359409858232
43.54058479482875,3.900146484375,0.20786417545540017
43.54058479482875,3.90289306640625,0.21161062352792032
43.54058479482875,3.9056396484375,0.19953024456230453
43.54058479482875,3.90838623046875,0.17803725115375177
43.54058479482875,3.9111328125,0.15397837195188754
43.54058479482875,3.91387939453125,0.13150665248910096
43.54058479482875,3.9166259765625,0.11158531923508341
43.54058479482875,3.95782470703125,0.11079389864653791
43.54058479482875,3.9605712890625,0.12538722771176508
43.54058479482875,3.96331787109375,0.13760983506708346
43.54058479482875,3.966064453125,0.14418245403554375
43.54058479482875,3.96881103515625,0.14234832029208414
43.54058479482875,3.9715576171875,0.13118612521806536
43.54058479482875,3.97430419921875,0.11219040515672841
43.53859380144237,3.8946533203125,0.12219573440689761
43.53859380144237,3.89739990234375,0.15905710652377023
43.53859380144237,3.900146484375,0.18736237978394207
43.53859380144237,3.90289306640625,0.20273360826151884
43.53859380144237,3.9056396484375,0.20489667656030974
43.53859380144237,3.90838623046875,0.1971407366482699
43.53859380144237,3.9111328125,0.18399902801635412
43.53859380144237,3.91387939453125,0.1688223996650626
43.53859380144237,3.9166259765625,0.15292232499729422
43.53859380144237,3.91937255859375,0.13641162697758064
43.53859380144237,3.922119140625,0.1195337146439131
43.53859380144237,3.92486572265625,0.10332740814812225
43.53859380144237,3.95233154296875,0.10355946658655067
43.53859380144237,3.955078125,0.11110847737393909
43.53859380144237,3.95782470703125,0.11760482622986101
43.53859380144237,3.9605712890625,0.12222920248803941
43.53859380144237,3.96331787109375,0.12366954687855318
43.53859380144237,3.966064453125,0.12044286888221581
43.53859380144237,3.96881103515625,0.11164731397186897
43.536602742310315,3.89739990234375,0.1264774126958001
43.536602742310315,3.900146484375,0.15699860804626567
43.536602742310315,3.90289306640625,0.17988692213329918
43.536602742310315,3.9056396484375,0.19332881152174564
43.536602742310315,3.90838623046875,0.19828304512516953
43.536602742310315,3.9111328125,0.1972444452769647
43.536602742310315,3.91387939453125,0.19249625565820544
43.536602742310315,3.9166259765625,0.18510705909163194
43.536602742310315,3.91937255859375,0.17517603261673745
43.536602742310315,3.922119140625,0.1628027524205552
43.536602742310315,3.92486572265625,0.148864888764636
43.536602742310315,3.9276123046875,0.1350253542388215
43.536602742310315,3.93035888671875,0.12307381165945278
43.536602742310315,3.93310546875,0.11422135420114579
43.536602742310315,3.93585205078125,0.10886363884375598
43.536602742310315,3.9385986328125,0.10675176134122476
43.536602742310315,3.94134521484375,0.10723206364370265
43.536602742310315,3.944091796875,0.10941790384678603
43.536602742310315,3.94683837890625,0.11233302073332972
43.536602742310315,3.9495849609375,0.11502097510890837
43.536602742310315,3.95233154296875,0.11663431915649408
43.536602742310315,3.955078125,0.11653944538092842
43.536602742310315,3.95782470703125,0.11435073964019057
43.536602742310315,3.9605712890625,0.10979877228628492
43.536602742310315,3.96331787109375,0.1025996058111316
43.534611617432816,3.900146484375,0.12040076671161377
43.534611617432816,3.90289306640625,0.1454869851470252
43.534611617432816,3.9056396484375,0.1652204834274109
43.534611617432816,3.90838623046875,0.17933858876856631
43.534611617432816,3.9111328125,0.1889871220866881
43.534611617432816,3.91387939453125,0.19549950703201327
43.534611617432816,3.9166259765625,0.19938139015120893
43.534611617432816,3.91937255859375,0.20015860010631506
43.534611617432816,3.922119140625,0.1970761536933485
43.534611617432816,3.92486572265625,0.19003511106422413
43.534611617432816,3.9276123046875,0.18002188212963918
43.534611617432816,3.93035888671875,0.1687490456211743
43.534611617432816,3.93310546875,0.15791815178379365
43.534611617432816,3.93585205078125,0.14869582538590392
43.534611617432816,3.9385986328125,0.14155278117152817
43.534611617432816,3.94134521484375,0.1362954841197747
43.534611617432816,3.944091796875,0.1322218527156951
43.534611617432816,3.94683837890625,0.12839344341621758
43.534611617432816,3.9495849609375,0.12389749045853522
43.534611617432816,3.95233154296875,0.11801680189247801
43.534611617432816,3.955078125,0.11035311186006994
43.534611617432816,3.95782470703125,0.10088478162375554
43.5326204268101,3.90289306640625,0.10642340590503568
43.5326204268101,3.9056396484375,0.12701461715468296
43.5326204268101,3.90838623046875,0.1452944248793994
43.5326204268101,3.9111328125,0.16189757793777906
43.5326204268101,3.91387939453125,0.17761229114889573
43.5326204268101,3.9166259765625,0.19240187524350985
43.5326204268101,3.91937255859375,0.20501619765581447
43.5326204268101,3.922119140625,0.2134878506337704
43.5326204268101,3.92486572265625,0.21620626023730624
43.5326204268101,3.9276123046875,0.21280777474063697
43.5326204268101,3.93035888671875,0.2042872885584717
43.5326204268101,3.93310546875,0.19244157425052716
43.5326204268101,3.93585205078125,0.17917537377193812
43.5326204268101,3.9385986328125,0.16597613895066146
43.5326204268101,3.94134521484375,0.15359729349453388
43.5326204268101,3.944091796875,0.14202877831814031
43.5326204268101,3.94683837890625,0.1307759175261568
43.5326204268101,3.9495849609375,0.11923563151092935
43.5326204268101,3.95233154296875,0.10696763806741237
43.53062917044241,3.90838623046875,0.10591749950761055
43.53062917044241,3.9111328125,0.12480146168107088
43.53062917044241,3.91387939453125,0.145501846377739
43.53062917044241,3.9166259765625,0.1676961516834479
43.53062917044241,3.91937255859375,0.18955442931281727
43.53062917044241,3.922119140625,0.20806489982185963
43.53062917044241,3.92486572265625,0.22014265793940443
43.53062917044241,3.9276123046875,0.22387577478973258
43.53062917044241,3.93035888671875,0.21914152792023883
43.53062917044241,3.93310546875,0.2073995405710325
43.53062917044241,3.93585205078125,0.19101854258839665
43.53062917044241,3.9385986328125,0.17248622153932247
43.53062917044241,3.94134521484375,0.15371112426292316
43.53062917044241,3.944091796875,0.13567666927267716
43.53062917044241,3.94683837890625,0.11858071879195792
43.53062917044241,3.9495849609375,0.102242099159418
43.52863784832999,3.91387939453125,0.10947544616085134
43.52863784832999,3.9166259765625,0.13382183566983558
43.52863784832999,3.91937255859375,0.15959966104819445
43.52863784832999,3.922119140625,0.1833781984866368
43.52863784832999,3.92486572265625,0.2012302926035276
43.52863784832999,3.9276123046875,0.2100987065159082
43.52863784832999,3.93035888671875,0.2087768429579259
43.52863784832999,3.93310546875,0.1980973190989437
43.52863784832999,3.93585205078125,0.180464477272935
43.52863784832999,3.9385986328125,0.1589983770795739
43.52863784832999,3.94134521484375,0.13656021763258458
43.52863784832999,3.944091796875,0.1150672904932961
43.52664646047306,3.91937255859375,0.12385619998324285
43.52664646047306,3.922119140625,0.14698012432193394
43.52664646047306,3.92486572265625,0.16547157082751077
43.52664646047306,3.9276123046875,0.1759538961411216
43.52664646047306,3.93035888671875,0.17658899588021607
43.52664646047306,3.93310546875,0.1675556399235507
43.52664646047306,3.93585205078125,0.1508824994220581
43.52664646047306,3.9385986328125,0.12973911943807914
43.52664646047306,3.94134521484375,0.10739068676969309
43.52465500687186,3.922119140625,0.10783922848488287
43.52465500687186,3.92486572265625,0.12256953625581703
43.52465500687186,3.9276123046875,0.13128610800358703
43.52465500687186,3.93035888671875,0.1321633985934802
43.52465500687186,3.93310546875,0.12495409115016494
43.52465500687186,3.93585205078125,0.11108227365233235
